﻿{
  "webroot": "wwwroot",
  "version": "1.0.0-*",

  "dependencies": {
    "Microsoft.AspNet.Server.IIS": "1.0.0-beta5",
    "Microsoft.AspNet.Server.WebListener": "1.0.0-beta5",
    "Kestrel": "1.0.0-beta5"
  },

  "commands": {
    "kestrel": "Microsoft.AspNet.Hosting --server Kestrel --server.urls http://localhost:5004",
    "run": "run server.urls=http://localhost:5003",
    "web": "Microsoft.AspNet.Hosting --server Microsoft.AspNet.Server.WebListener --server.urls http://localhost:5000"
  },

  "frameworks": {
    "dnx451": { },
    "dnxcore50": { }
  },

  "publishExclude": [
    "node_modules",
    "bower_components",
    "**.xproj",
    "**.user",
    "**.vspscc"
  ],
  "exclude": [
    "wwwroot",
    "node_modules",
    "bower_components"
  ]
}
